{
   "count":118,
   "next":"https://raw.githubusercontent.com/Dunniii/Application3A/master/atomeapi.json/?offset=20&limit=20",
   "results":[
      {
         "name":"Hydrogène",
         "url":"https://fr.wikipedia.org/wiki/Hydrog%C3%A8ne#/media/Fichier:Liquid_hydrogen_bubblechamber.jpg",
         "numero":"1",
         "description":"Son symbole est H et son découvreur est Cavendish"
      },
      {
         "name":"Hélium",
         "url":"https://fr.wikipedia.org/wiki/H%C3%A9lium#/media/Fichier:Liquid_helium_superfluid_phase.jpg",
         "numero":"2",
         "description":"Son symbole est He et ses découvreurs sont Ramsay et Cleve"
      },
      {
         "name":"Lithium",
         "url":"https://fr.wikipedia.org/wiki/Lithium#/media/Fichier:Lithium_paraffin.jpg",
         "numero":"3",
         "description":"Son symbole est Li et son découvreur est Arfvedson"
      },
      {
         "name":"Beryllium",
         "url":"https://fr.wikipedia.org/wiki/B%C3%A9ryllium#/media/Fichier:Beryllium_nuggets_2.jpg",
         "numero":"4",
         "description":"Son symbole est Be et son découvreur est Vauquelin"
      },
      {
         "name":"Bore",
         "url":"https://upload.wikimedia.org/wikipedia/commons/1/19/Boron_R105.jpg",
         "numero":"5",
         "description":"Son symbole est B et ses découvreurs  sont Davy et Gay-Lussac"
      },
      {
         "name":"Carbone",
         "url":"https://fr.wikipedia.org/wiki/Carbone#/media/Fichier:Graphite-and-diamond-with-scale.jpg",
         "numero":"6",
         "description":"Son symbole est C et son découvreur est inconnu"
      }
   ]
}
